random dZ
0.000 -9.990
0.001 -2.440
0.002 -2.190
0.003 -2.050
0.004 -1.940
0.005 -1.860
0.006 -1.800
0.007 -1.740
0.008 -1.690
0.009 -1.650
0.010 -1.610
0.011 -1.580
0.012 -1.550
0.013 -1.520
0.014 -1.490
0.015 -1.470
0.016 -1.450
0.017 -1.420
0.018 -1.400
0.019 -1.380
0.020 -1.370
0.021 -1.350
0.022 -1.330
0.023 -1.320
0.024 -1.300
0.025 -1.290
0.026 -1.270
0.027 -1.260
0.028 -1.240
0.029 -1.230
0.030 -1.220
0.031 -1.210
0.032 -1.200
0.033 -1.190
0.034 -1.170
0.035 -1.160
0.036 -1.150
0.037 -1.140
0.038 -1.130
0.039 -1.130
0.040 -1.120
0.041 -1.110
0.042 -1.100
0.043 -1.090
0.044 -1.080
0.045 -1.070
0.046 -1.070
0.047 -1.060
0.048 -1.050
0.049 -1.040
0.050 -1.040
0.051 -1.030
0.052 -1.020
0.053 -1.020
0.054 -1.010
0.055 -1.000
0.056 -1.000
0.057 -0.990
0.058 -0.980
0.059 -0.980
0.060 -0.970
0.061 -0.960
0.062 -0.960
0.063 -0.950
0.064 -0.950
0.065 -0.940
0.066 -0.940
0.067 -0.930
0.068 -0.930
0.069 -0.920
0.070 -0.920
0.071 -0.910
0.072 -0.910
0.073 -0.900
0.074 -0.900
0.075 -0.890
0.076 -0.890
0.077 -0.880
0.078 -0.880
0.079 -0.870
0.080 -0.870
0.081 -0.860
0.082 -0.860
0.083 -0.850
0.084 -0.850
0.085 -0.850
0.086 -0.840
0.087 -0.840
0.088 -0.830
0.089 -0.830
0.090 -0.820
0.091 -0.820
0.092 -0.820
0.093 -0.810
0.094 -0.810
0.095 -0.810
0.096 -0.800
0.097 -0.800
0.098 -0.790
0.099 -0.790
0.100 -0.790
0.101 -0.780
0.102 -0.780
0.103 -0.780
0.104 -0.770
0.105 -0.770
0.106 -0.770
0.107 -0.760
0.108 -0.760
0.109 -0.760
0.110 -0.750
0.111 -0.750
0.112 -0.750
0.113 -0.740
0.114 -0.740
0.115 -0.740
0.116 -0.730
0.117 -0.730
0.118 -0.730
0.119 -0.720
0.120 -0.720
0.121 -0.720
0.122 -0.720
0.123 -0.710
0.124 -0.710
0.125 -0.710
0.126 -0.700
0.127 -0.700
0.128 -0.700
0.129 -0.700
0.130 -0.690
0.131 -0.690
0.132 -0.690
0.133 -0.680
0.134 -0.680
0.135 -0.680
0.136 -0.680
0.137 -0.670
0.138 -0.670
0.139 -0.670
0.140 -0.670
0.141 -0.660
0.142 -0.660
0.143 -0.660
0.144 -0.660
0.145 -0.650
0.146 -0.650
0.147 -0.650
0.148 -0.650
0.149 -0.640
0.150 -0.640
0.151 -0.640
0.152 -0.640
0.153 -0.630
0.154 -0.630
0.155 -0.630
0.156 -0.630
0.157 -0.620
0.158 -0.620
0.159 -0.620
0.160 -0.620
0.161 -0.620
0.162 -0.610
0.163 -0.610
0.164 -0.610
0.165 -0.610
0.166 -0.600
0.167 -0.600
0.168 -0.600
0.169 -0.600
0.170 -0.600
0.171 -0.590
0.172 -0.590
0.173 -0.590
0.174 -0.590
0.175 -0.590
0.176 -0.580
0.177 -0.580
0.178 -0.580
0.179 -0.580
0.180 -0.580
0.181 -0.570
0.182 -0.570
0.183 -0.570
0.184 -0.570
0.185 -0.570
0.186 -0.560
0.187 -0.560
0.188 -0.560
0.189 -0.560
0.190 -0.560
0.191 -0.550
0.192 -0.550
0.193 -0.550
0.194 -0.550
0.195 -0.550
0.196 -0.550
0.197 -0.540
0.198 -0.540
0.199 -0.540
0.200 -0.540
0.201 -0.540
0.202 -0.530
0.203 -0.530
0.204 -0.530
0.205 -0.530
0.206 -0.530
0.207 -0.530
0.208 -0.520
0.209 -0.520
0.210 -0.520
0.211 -0.520
0.212 -0.520
0.213 -0.520
0.214 -0.510
0.215 -0.510
0.216 -0.510
0.217 -0.510
0.218 -0.510
0.219 -0.510
0.220 -0.500
0.221 -0.500
0.222 -0.500
0.223 -0.500
0.224 -0.500
0.225 -0.500
0.226 -0.490
0.227 -0.490
0.228 -0.490
0.229 -0.490
0.230 -0.490
0.231 -0.490
0.232 -0.480
0.233 -0.480
0.234 -0.480
0.235 -0.480
0.236 -0.480
0.237 -0.480
0.238 -0.480
0.239 -0.470
0.240 -0.470
0.241 -0.470
0.242 -0.470
0.243 -0.470
0.244 -0.470
0.245 -0.460
0.246 -0.460
0.247 -0.460
0.248 -0.460
0.249 -0.460
0.250 -0.460
0.251 -0.460
0.252 -0.450
0.253 -0.450
0.254 -0.450
0.255 -0.450
0.256 -0.450
0.257 -0.450
0.258 -0.450
0.259 -0.440
0.260 -0.440
0.261 -0.440
0.262 -0.440
0.263 -0.440
0.264 -0.440
0.265 -0.440
0.266 -0.440
0.267 -0.430
0.268 -0.430
0.269 -0.430
0.270 -0.430
0.271 -0.430
0.272 -0.430
0.273 -0.430
0.274 -0.420
0.275 -0.420
0.276 -0.420
0.277 -0.420
0.278 -0.420
0.279 -0.420
0.280 -0.420
0.281 -0.420
0.282 -0.410
0.283 -0.410
0.284 -0.410
0.285 -0.410
0.286 -0.410
0.287 -0.410
0.288 -0.410
0.289 -0.410
0.290 -0.400
0.291 -0.400
0.292 -0.400
0.293 -0.400
0.294 -0.400
0.295 -0.400
0.296 -0.400
0.297 -0.400
0.298 -0.390
0.299 -0.390
0.300 -0.390
0.301 -0.390
0.302 -0.390
0.303 -0.390
0.304 -0.390
0.305 -0.390
0.306 -0.390
0.307 -0.380
0.308 -0.380
0.309 -0.380
0.310 -0.380
0.311 -0.380
0.312 -0.380
0.313 -0.380
0.314 -0.380
0.315 -0.370
0.316 -0.370
0.317 -0.370
0.318 -0.370
0.319 -0.370
0.320 -0.370
0.321 -0.370
0.322 -0.370
0.323 -0.370
0.324 -0.360
0.325 -0.360
0.326 -0.360
0.327 -0.360
0.328 -0.360
0.329 -0.360
0.330 -0.360
0.331 -0.360
0.332 -0.360
0.333 -0.350
0.334 -0.350
0.335 -0.350
0.336 -0.350
0.337 -0.350
0.338 -0.350
0.339 -0.350
0.340 -0.350
0.341 -0.350
0.342 -0.340
0.343 -0.340
0.344 -0.340
0.345 -0.340
0.346 -0.340
0.347 -0.340
0.348 -0.340
0.349 -0.340
0.350 -0.340
0.351 -0.340
0.352 -0.330
0.353 -0.330
0.354 -0.330
0.355 -0.330
0.356 -0.330
0.357 -0.330
0.358 -0.330
0.359 -0.330
0.360 -0.330
0.361 -0.330
0.362 -0.320
0.363 -0.320
0.364 -0.320
0.365 -0.320
0.366 -0.320
0.367 -0.320
0.368 -0.320
0.369 -0.320
0.370 -0.320
0.371 -0.320
0.372 -0.310
0.373 -0.310
0.374 -0.310
0.375 -0.310
0.376 -0.310
0.377 -0.310
0.378 -0.310
0.379 -0.310
0.380 -0.310
0.381 -0.310
0.382 -0.300
0.383 -0.300
0.384 -0.300
0.385 -0.300
0.386 -0.300
0.387 -0.300
0.388 -0.300
0.389 -0.300
0.390 -0.300
0.391 -0.300
0.392 -0.300
0.393 -0.290
0.394 -0.290
0.395 -0.290
0.396 -0.290
0.397 -0.290
0.398 -0.290
0.399 -0.290
0.400 -0.290
0.401 -0.290
0.402 -0.290
0.403 -0.290
0.404 -0.280
0.405 -0.280
0.406 -0.280
0.407 -0.280
0.408 -0.280
0.409 -0.280
0.410 -0.280
0.411 -0.280
0.412 -0.280
0.413 -0.280
0.414 -0.280
0.415 -0.270
0.416 -0.270
0.417 -0.270
0.418 -0.270
0.419 -0.270
0.420 -0.270
0.421 -0.270
0.422 -0.270
0.423 -0.270
0.424 -0.270
0.425 -0.270
0.426 -0.270
0.427 -0.260
0.428 -0.260
0.429 -0.260
0.430 -0.260
0.431 -0.260
0.432 -0.260
0.433 -0.260
0.434 -0.260
0.435 -0.260
0.436 -0.260
0.437 -0.260
0.438 -0.260
0.439 -0.250
0.440 -0.250
0.441 -0.250
0.442 -0.250
0.443 -0.250
0.444 -0.250
0.445 -0.250
0.446 -0.250
0.447 -0.250
0.448 -0.250
0.449 -0.250
0.450 -0.250
0.451 -0.240
0.452 -0.240
0.453 -0.240
0.454 -0.240
0.455 -0.240
0.456 -0.240
0.457 -0.240
0.458 -0.240
0.459 -0.240
0.460 -0.240
0.461 -0.240
0.462 -0.240
0.463 -0.230
0.464 -0.230
0.465 -0.230
0.466 -0.230
0.467 -0.230
0.468 -0.230
0.469 -0.230
0.470 -0.230
0.471 -0.230
0.472 -0.230
0.473 -0.230
0.474 -0.230
0.475 -0.220
0.476 -0.220
0.477 -0.220
0.478 -0.220
0.479 -0.220
0.480 -0.220
0.481 -0.220
0.482 -0.220
0.483 -0.220
0.484 -0.220
0.485 -0.220
0.486 -0.220
0.487 -0.220
0.488 -0.210
0.489 -0.210
0.490 -0.210
0.491 -0.210
0.492 -0.210
0.493 -0.210
0.494 -0.210
0.495 -0.210
0.496 -0.210
0.497 -0.210
0.498 -0.210
0.499 -0.210
0.500 -0.210
0.501 -0.210
0.502 -0.200
0.503 -0.200
0.504 -0.200
0.505 -0.200
0.506 -0.200
0.507 -0.200
0.508 -0.200
0.509 -0.200
0.510 -0.200
0.511 -0.200
0.512 -0.200
0.513 -0.200
0.514 -0.200
0.515 -0.190
0.516 -0.190
0.517 -0.190
0.518 -0.190
0.519 -0.190
0.520 -0.190
0.521 -0.190
0.522 -0.190
0.523 -0.190
0.524 -0.190
0.525 -0.190
0.526 -0.190
0.527 -0.190
0.528 -0.190
0.529 -0.180
0.530 -0.180
0.531 -0.180
0.532 -0.180
0.533 -0.180
0.534 -0.180
0.535 -0.180
0.536 -0.180
0.537 -0.180
0.538 -0.180
0.539 -0.180
0.540 -0.180
0.541 -0.180
0.542 -0.170
0.543 -0.170
0.544 -0.170
0.545 -0.170
0.546 -0.170
0.547 -0.170
0.548 -0.170
0.549 -0.170
0.550 -0.170
0.551 -0.170
0.552 -0.170
0.553 -0.170
0.554 -0.170
0.555 -0.170
0.556 -0.160
0.557 -0.160
0.558 -0.160
0.559 -0.160
0.560 -0.160
0.561 -0.160
0.562 -0.160
0.563 -0.160
0.564 -0.160
0.565 -0.160
0.566 -0.160
0.567 -0.160
0.568 -0.160
0.569 -0.160
0.570 -0.160
0.571 -0.150
0.572 -0.150
0.573 -0.150
0.574 -0.150
0.575 -0.150
0.576 -0.150
0.577 -0.150
0.578 -0.150
0.579 -0.150
0.580 -0.150
0.581 -0.150
0.582 -0.150
0.583 -0.150
0.584 -0.150
0.585 -0.140
0.586 -0.140
0.587 -0.140
0.588 -0.140
0.589 -0.140
0.590 -0.140
0.591 -0.140
0.592 -0.140
0.593 -0.140
0.594 -0.140
0.595 -0.140
0.596 -0.140
0.597 -0.140
0.598 -0.140
0.599 -0.140
0.600 -0.130
0.601 -0.130
0.602 -0.130
0.603 -0.130
0.604 -0.130
0.605 -0.130
0.606 -0.130
0.607 -0.130
0.608 -0.130
0.609 -0.130
0.610 -0.130
0.611 -0.130
0.612 -0.130
0.613 -0.130
0.614 -0.130
0.615 -0.120
0.616 -0.120
0.617 -0.120
0.618 -0.120
0.619 -0.120
0.620 -0.120
0.621 -0.120
0.622 -0.120
0.623 -0.120
0.624 -0.120
0.625 -0.120
0.626 -0.120
0.627 -0.120
0.628 -0.120
0.629 -0.110
0.630 -0.110
0.631 -0.110
0.632 -0.110
0.633 -0.110
0.634 -0.110
0.635 -0.110
0.636 -0.110
0.637 -0.110
0.638 -0.110
0.639 -0.110
0.640 -0.110
0.641 -0.110
0.642 -0.110
0.643 -0.110
0.644 -0.100
0.645 -0.100
0.646 -0.100
0.647 -0.100
0.648 -0.100
0.649 -0.100
0.650 -0.100
0.651 -0.100
0.652 -0.100
0.653 -0.100
0.654 -0.100
0.655 -0.100
0.656 -0.100
0.657 -0.100
0.658 -0.100
0.659 -0.090
0.660 -0.090
0.661 -0.090
0.662 -0.090
0.663 -0.090
0.664 -0.090
0.665 -0.090
0.666 -0.090
0.667 -0.090
0.668 -0.090
0.669 -0.090
0.670 -0.090
0.671 -0.090
0.672 -0.090
0.673 -0.090
0.674 -0.080
0.675 -0.080
0.676 -0.080
0.677 -0.080
0.678 -0.080
0.679 -0.080
0.680 -0.080
0.681 -0.080
0.682 -0.080
0.683 -0.080
0.684 -0.080
0.685 -0.080
0.686 -0.080
0.687 -0.080
0.688 -0.080
0.689 -0.070
0.690 -0.070
0.691 -0.070
0.692 -0.070
0.693 -0.070
0.694 -0.070
0.695 -0.070
0.696 -0.070
0.697 -0.070
0.698 -0.070
0.699 -0.070
0.700 -0.070
0.701 -0.070
0.702 -0.070
0.703 -0.070
0.704 -0.060
0.705 -0.060
0.706 -0.060
0.707 -0.060
0.708 -0.060
0.709 -0.060
0.710 -0.060
0.711 -0.060
0.712 -0.060
0.713 -0.060
0.714 -0.060
0.715 -0.060
0.716 -0.060
0.717 -0.060
0.718 -0.060
0.719 -0.050
0.720 -0.050
0.721 -0.050
0.722 -0.050
0.723 -0.050
0.724 -0.050
0.725 -0.050
0.726 -0.050
0.727 -0.050
0.728 -0.050
0.729 -0.050
0.730 -0.050
0.731 -0.050
0.732 -0.050
0.733 -0.050
0.734 -0.040
0.735 -0.040
0.736 -0.040
0.737 -0.040
0.738 -0.040
0.739 -0.040
0.740 -0.040
0.741 -0.040
0.742 -0.040
0.743 -0.040
0.744 -0.040
0.745 -0.040
0.746 -0.040
0.747 -0.040
0.748 -0.030
0.749 -0.030
0.750 -0.030
0.751 -0.030
0.752 -0.030
0.753 -0.030
0.754 -0.030
0.755 -0.030
0.756 -0.030
0.757 -0.030
0.758 -0.030
0.759 -0.030
0.760 -0.030
0.761 -0.030
0.762 -0.030
0.763 -0.020
0.764 -0.020
0.765 -0.020
0.766 -0.020
0.767 -0.020
0.768 -0.020
0.769 -0.020
0.770 -0.020
0.771 -0.020
0.772 -0.020
0.773 -0.020
0.774 -0.020
0.775 -0.020
0.776 -0.020
0.777 -0.010
0.778 -0.010
0.779 -0.010
0.780 -0.010
0.781 -0.010
0.782 -0.010
0.783 -0.010
0.784 -0.010
0.785 -0.010
0.786 -0.010
0.787 -0.010
0.788 -0.010
0.789 -0.010
0.790 -0.000
0.791 -0.000
0.792 -0.000
0.793 -0.000
0.794 -0.000
0.795 -0.000
0.796 -0.000
0.797 -0.000
0.798 -0.000
0.799 -0.000
0.800 -0.000
0.801 -0.000
0.802 -0.000
0.803 -0.000
0.804 0.010
0.805 0.010
0.806 0.010
0.807 0.010
0.808 0.010
0.809 0.010
0.810 0.010
0.811 0.010
0.812 0.010
0.813 0.010
0.814 0.010
0.815 0.010
0.816 0.010
0.817 0.020
0.818 0.020
0.819 0.020
0.820 0.020
0.821 0.020
0.822 0.020
0.823 0.020
0.824 0.020
0.825 0.020
0.826 0.020
0.827 0.020
0.828 0.020
0.829 0.020
0.830 0.030
0.831 0.030
0.832 0.030
0.833 0.030
0.834 0.030
0.835 0.030
0.836 0.030
0.837 0.030
0.838 0.030
0.839 0.030
0.840 0.030
0.841 0.030
0.842 0.040
0.843 0.040
0.844 0.040
0.845 0.040
0.846 0.040
0.847 0.040
0.848 0.040
0.849 0.040
0.850 0.040
0.851 0.040
0.852 0.040
0.853 0.040
0.854 0.050
0.855 0.050
0.856 0.050
0.857 0.050
0.858 0.050
0.859 0.050
0.860 0.050
0.861 0.050
0.862 0.050
0.863 0.050
0.864 0.050
0.865 0.060
0.866 0.060
0.867 0.060
0.868 0.060
0.869 0.060
0.870 0.060
0.871 0.060
0.872 0.060
0.873 0.060
0.874 0.060
0.875 0.060
0.876 0.070
0.877 0.070
0.878 0.070
0.879 0.070
0.880 0.070
0.881 0.070
0.882 0.070
0.883 0.070
0.884 0.070
0.885 0.070
0.886 0.080
0.887 0.080
0.888 0.080
0.889 0.080
0.890 0.080
0.891 0.080
0.892 0.080
0.893 0.080
0.894 0.080
0.895 0.080
0.896 0.090
0.897 0.090
0.898 0.090
0.899 0.090
0.900 0.090
0.901 0.090
0.902 0.090
0.903 0.090
0.904 0.090
0.905 0.100
0.906 0.100
0.907 0.100
0.908 0.100
0.909 0.100
0.910 0.100
0.911 0.100
0.912 0.100
0.913 0.100
0.914 0.110
0.915 0.110
0.916 0.110
0.917 0.110
0.918 0.110
0.919 0.110
0.920 0.110
0.921 0.110
0.922 0.120
0.923 0.120
0.924 0.120
0.925 0.120
0.926 0.120
0.927 0.120
0.928 0.120
0.929 0.120
0.930 0.130
0.931 0.130
0.932 0.130
0.933 0.130
0.934 0.130
0.935 0.130
0.936 0.130
0.937 0.140
0.938 0.140
0.939 0.140
0.940 0.140
0.941 0.140
0.942 0.140
0.943 0.140
0.944 0.150
0.945 0.150
0.946 0.150
0.947 0.150
0.948 0.150
0.949 0.150
0.950 0.160
0.951 0.160
0.952 0.160
0.953 0.160
0.954 0.160
0.955 0.170
0.956 0.170
0.957 0.170
0.958 0.170
0.959 0.170
0.960 0.170
0.961 0.180
0.962 0.180
0.963 0.180
0.964 0.180
0.965 0.190
0.966 0.190
0.967 0.190
0.968 0.190
0.969 0.190
0.970 0.200
0.971 0.200
0.972 0.200
0.973 0.210
0.974 0.210
0.975 0.210
0.976 0.210
0.977 0.220
0.978 0.220
0.979 0.220
0.980 0.230
0.981 0.230
0.982 0.230
0.983 0.240
0.984 0.240
0.985 0.250
0.986 0.250
0.987 0.260
0.988 0.260
0.989 0.270
0.990 0.270
0.991 0.280
0.992 0.290
0.993 0.290
0.994 0.300
0.995 0.310
0.996 0.330
0.997 0.340
0.998 0.360
0.999 0.390
