Mass tau_H_0 tau_H_1 tau_He_0 tau_He_1
0.7 2.2751 1.e10 1.1598 1.e8
0.8 1.3749 1.e10 1.1536 1.e8
0.9 8.9023 1.e9 1.0576 1.e8
1.0 6.1077 1.e9 1.1029 1.e8
1.1 4.3791 1.e9 2.0626 1.e8
1.2 3.3170 1.e9 1.5657 1.e8
1.3 2.5358 1.e9 1.2843 1.e8
1.4 1.9741 1.e9 1.0660 1.e8
1.5 1.5810 1.e9 9.4372 1.e7
1.6 1.2830 1.e9 7.5237 1.e7
1.7 1.0510 1.e9 6.3585 1.e7
1.8 8.8129 1.e8 6.2271 1.e7
1.9 7.4387 1.e8 4.8001 1.e7
2.0 6.3454 1.e8 4.2688 1.e7
2.1 5.4827 1.e8 3.7334 1.e7
2.2 4.7794 1.e8 3.5347 1.e7
2.3 4.2032 1.e8 3.0438 1.e7
2.4 3.7470 1.e8 2.6636 1.e7
2.5 3.3439 1.e8 2.4283 1.e7
2.7 2.7806 1.e8 2.0256 1.e7
3.0 2.0931 1.e8 1.6214 1.e7
3.5 1.4855 1.e8 1.2113 1.e7
4.0 1.0755 1.e8 1.1333 1.e7
5.0 6.7291 1.e7 6.9363 1.e6
6.0 4.7335 1.e7 4.4815 1.e6
6.5 4.1719 1.e7 3.5485 1.e6
7.0 3.5567 1.e7 2.9240 1.e6
8.0 2.6947 1.e7 2.0781 1.e6
8.3 2.5305 1.e7 1.9528 1.e6
9.0 2.2221 1.e7 1.6740 1.e6
9.5 2.0475 1.e7 1.5268 1.e6
10.0 1.8923 1.e7 1.4089 1.e6
12.0 1.4710 1.e7 1.0536 1.e6
15.0 1.1307 1.e7 7.7869 1.e5
20.0 8.4720 1.e6 5.7555 1.e5
30.0 5.9030 1.e6 4.2264 1.e5
50.0 4.1315 1.e6 3.3023 1.e5
70.0 3.4538 1.e6 2.9938 1.e5
100.0 2.9509 1.e6 2.6841 1.e5