bin_center,raw,gmm,corr
-7.05,0,0,0
-4.05,0,0,0
-3.95,395,10,10
-3.85,143,34,34
-3.75,170,59,59
-3.65,294,104,104
-3.55,500,149,149
-3.45,657,192,192
-3.35,787,353,353
-3.25,1037,466,466
-3.15,1189,625,628
-3.05,1458,765,767
-2.95,1650,984,989
-2.85,1999,1241,1255
-2.75,2235,1491,1520
-2.65,2516,1808,1847
-2.55,2845,2098,2154
-2.45,3186,2531,2634
-2.35,3521,2816,2996
-2.25,3770,3142,3366
-2.15,4116,3596,3892
-2.05,4503,3910,4342
-1.95,4635,4486,5174
-1.85,4778,4730,5680
-1.75,4798,4951,6178
-1.65,4650,5054,6557
-1.55,4409,5086,7092
-1.45,4011,4925,7589
-1.35,3415,4529,7841
-1.25,2865,4124,7889
-1.15,2259,3588,8787
-1.05,1816,3101,12421
